[1016/134913.490:ERROR:crash_report_database_win.cc(427)] unexpected header
[1016/134925.498:ERROR:crash_report_database_win.cc(427)] unexpected header
[1016/135808.471:ERROR:crash_report_database_win.cc(427)] unexpected header
